^C:\USERS\BRAND\DOWNLOADS\DAWID_GRZESZUK-PROGRAM-NA-5-A17A77520787\LECIMY PO PIATKE\DEBUG\HISTORY.OBJ|C:\USERS\BRAND\DOWNLOADS\DAWID_GRZESZUK-PROGRAM-NA-5-A17A77520787\LECIMY PO PIATKE\DEBUG\MAIN.OBJ|C:\USERS\BRAND\DOWNLOADS\DAWID_GRZESZUK-PROGRAM-NA-5-A17A77520787\LECIMY PO PIATKE\DEBUG\MATCH_UP.OBJ|C:\USERS\BRAND\DOWNLOADS\DAWID_GRZESZUK-PROGRAM-NA-5-A17A77520787\LECIMY PO PIATKE\DEBUG\TEAM.OBJ|C:\USERS\BRAND\DOWNLOADS\DAWID_GRZESZUK-PROGRAM-NA-5-A17A77520787\LECIMY PO PIATKE\DEBUG\TOURNAMENT.OBJ
C:\USERS\BRAND\DOWNLOADS\DAWID_GRZESZUK-PROGRAM-NA-5-A17A77520787\DEBUG\LECIMY PO PIATKE.ILK
C:\USERS\BRAND\DOWNLOADS\DAWID_GRZESZUK-PROGRAM-NA-5-A17A77520787\DEBUG\LECIMY PO PIATKE.EXE
C:\USERS\BRAND\DOWNLOADS\DAWID_GRZESZUK-PROGRAM-NA-5-A17A77520787\DEBUG\LECIMY PO PIATKE.PDB
^C:\USERS\BRAND\DESKTOP\PROJEKT_PROGRAMOWANIE\LECIMY PO PIATKE\LECIMY PO PIATKE\DEBUG\HISTORY.OBJ|C:\USERS\BRAND\DESKTOP\PROJEKT_PROGRAMOWANIE\LECIMY PO PIATKE\LECIMY PO PIATKE\DEBUG\MAIN.OBJ|C:\USERS\BRAND\DESKTOP\PROJEKT_PROGRAMOWANIE\LECIMY PO PIATKE\LECIMY PO PIATKE\DEBUG\MATCH_UP.OBJ|C:\USERS\BRAND\DESKTOP\PROJEKT_PROGRAMOWANIE\LECIMY PO PIATKE\LECIMY PO PIATKE\DEBUG\TEAM.OBJ|C:\USERS\BRAND\DESKTOP\PROJEKT_PROGRAMOWANIE\LECIMY PO PIATKE\LECIMY PO PIATKE\DEBUG\TOURNAMENT.OBJ
C:\USERS\BRAND\DESKTOP\PROJEKT_PROGRAMOWANIE\LECIMY PO PIATKE\DEBUG\LECIMY PO PIATKE.ILK
C:\USERS\BRAND\DESKTOP\PROJEKT_PROGRAMOWANIE\LECIMY PO PIATKE\DEBUG\LECIMY PO PIATKE.EXE
C:\USERS\BRAND\DESKTOP\PROJEKT_PROGRAMOWANIE\LECIMY PO PIATKE\DEBUG\LECIMY PO PIATKE.PDB
